sim/transcript
# do run.do
# Model Technology ModelSim SE-64 vlog 10.6 Compiler 2016.12 Dec 13 2016
# Start time: 14:13:05 on Apr 23,2018
# vlog ../mesi_fifo/mesi_isc_basic_fifo.sv 
# -- Compiling module mesi_isc_basic_fifo
# 
# Top level modules:
# 	mesi_isc_basic_fifo
# End time: 14:13:05 on Apr 23,2018, Elapsed time: 0:00:00
# Errors: 0, Warnings: 0
# Model Technology ModelSim SE-64 vlog 10.6 Compiler 2016.12 Dec 13 2016
# Start time: 14:13:05 on Apr 23,2018
# vlog "+cover" -sv ../tb/interfaces.sv ../tb/sequences.sv ../tb/coverage.sv ../tb/scoreboard.sv ../tb/modules.sv ../tb/tests.sv ../tb/tb.sv 
# -- Compiling interface mesi_input_interface
# -- Compiling interface mesi_output_interface
# ** Note: (vlog-2286) ../tb/sequences.sv(1): Using implicit +incdir+/misc/linuxws/packages/mentor_2016/modelsim10.6/modeltech/uvm-1.1d/../verilog_src/uvm-1.1d/src from import uvm_pkg
# -- Compiling package sequences
# -- Importing package mtiUvm.uvm_pkg (uvm-1.1d Built-in)
# -- Compiling package coverage_pkg
# -- Importing package sequences
# -- Compiling package scoreboard_pkg
# -- Compiling package modules_pkg
# -- Importing package coverage_pkg
# -- Importing package scoreboard_pkg
# -- Compiling package tests
# -- Importing package modules_pkg
# -- Compiling package tb_sv_unit
# -- Importing package mtiUvm.uvm_pkg (uvm-1.1d Built-in)
# -- Importing package modules_pkg
# -- Importing package sequences
# -- Importing package coverage_pkg
# -- Importing package scoreboard_pkg
# -- Importing package tests
# -- Compiling module testbench
# 
# Top level modules:
# 	testbench
# End time: 14:13:07 on Apr 23,2018, Elapsed time: 0:00:02
# Errors: 0, Warnings: 0
# vsim -c testbench 
# Start time: 14:13:07 on Apr 23,2018
# ** Note: (vsim-3812) Design is being optimized...
# ** Warning: ../tb/tb.sv(19): (vopt-2685) [TFMPC] - Too few port connections for 'fifo_module'.  Expected 12, found 8.
# ** Warning: ../tb/tb.sv(19): (vopt-2718) [TFMPC] - Missing connection for port 'ptr_rd'.
# ** Warning: ../tb/tb.sv(19): (vopt-2718) [TFMPC] - Missing connection for port 'ptr_wr'.
# ** Warning: ../tb/tb.sv(19): (vopt-2718) [TFMPC] - Missing connection for port 'fifo_depth'.
# ** Warning: ../tb/tb.sv(19): (vopt-2718) [TFMPC] - Missing connection for port 'entry'.
# //  ModelSim SE-64 10.6 Dec 13 2016Linux 2.6.32-696.18.7.el6.x86_64
# //
# //  Copyright 1991-2016 Mentor Graphics Corporation
# //  All Rights Reserved.
# //
# //  ModelSim SE-64 and its associated documentation contain trade
# //  secrets and commercial or financial information that are the property of
# //  Mentor Graphics Corporation and are privileged, confidential,
# //  and exempt from disclosure under the Freedom of Information Act,
# //  5 U.S.C. Section 552. Furthermore, this information
# //  is prohibited from disclosure under the Trade Secrets Act,
# //  18 U.S.C. Section 1905.
# //
# Loading sv_std.std
# Loading work.mesi_input_interface(fast)
# Loading work.mesi_output_interface(fast)
# Loading mtiUvm.uvm_pkg
# Loading work.sequences(fast)
# Loading work.scoreboard_pkg(fast)
# Loading work.coverage_pkg(fast)
# Loading work.modules_pkg(fast)
# Loading work.tests(fast)
# Loading work.tb_sv_unit(fast)
# Loading work.testbench(fast)
# Loading work.mesi_isc_basic_fifo(fast)
# Loading mtiUvm.questa_uvm_pkg(fast)
# ** Warning: (vsim-3764) ../tb/coverage.sv(113): Stand-alone call to function 'try_get' treated as implicit void cast.
#    Time: 0 ps  Iteration: 0  Region: /coverage_pkg File: ../tb/coverage.sv
# ** Warning: (vsim-3764) ../tb/coverage.sv(114): Stand-alone call to function 'try_get' treated as implicit void cast.
#    Time: 0 ps  Iteration: 0  Region: /coverage_pkg File: ../tb/coverage.sv
# Loading /misc/linuxws/packages/mentor_2016/modelsim10.6/modeltech/uvm-1.1d/linux_x86_64/uvm_dpi.so
# ----------------------------------------------------------------
# UVM-1.1d
# (C) 2007-2013 Mentor Graphics Corporation
# (C) 2007-2013 Cadence Design Systems, Inc.
# (C) 2006-2013 Synopsys, Inc.
# (C) 2011-2013 Cypress Semiconductor Corp.
# ----------------------------------------------------------------
# 
#   ***********       IMPORTANT RELEASE NOTES         ************
# 
#   You are using a version of the UVM library that has been compiled
#   with `UVM_NO_DEPRECATED undefined.
#   See http://www.eda.org/svdb/view.php?id=3313 for more details.
# 
#   You are using a version of the UVM library that has been compiled
#   with `UVM_OBJECT_MUST_HAVE_CONSTRUCTOR undefined.
#   See http://www.eda.org/svdb/view.php?id=3770 for more details.
# 
#       (Specify +UVM_NO_RELNOTES to turn off this notice)
# 
# UVM_INFO verilog_src/questa_uvm_pkg-1.2/src/questa_uvm_pkg.sv(215) @ 0: reporter [Questa UVM] QUESTA_UVM-1.2.3
# UVM_INFO verilog_src/questa_uvm_pkg-1.2/src/questa_uvm_pkg.sv(217) @ 0: reporter [Questa UVM]  questa_uvm::init(+struct)
# UVM_INFO @ 0: reporter [RNTST] Running test sample_test...
# 
# 
# 
# Reset Value : x
# UVM_INFO ../tb/scoreboard.sv(49) @ 15000: uvm_test_top.env_h.scoreboard_h [Input Transaction] wr = x, rd = x, data_in = xxxxxxxxxxxxxxxxxxxxxxxxxxxxxxxx
# UVM_INFO ../tb/scoreboard.sv(50) @ 15000: uvm_test_top.env_h.scoreboard_h [Output Transaction] data_out = xxxxxxxxxxxxxxxxxxxxxxxxxxxxxxxx, status_empty = x, status_full = x
# 
# 
# 
# Reset Value : 0
# UVM_INFO ../tb/scoreboard.sv(49) @ 45000: uvm_test_top.env_h.scoreboard_h [Input Transaction] wr = 1, rd = 1, data_in = 11101100011101001011000000000101
# UVM_INFO ../tb/scoreboard.sv(50) @ 45000: uvm_test_top.env_h.scoreboard_h [Output Transaction] data_out = xxxxxxxxxxxxxxxxxxxxxxxxxxxxxxxx, status_empty = x, status_full = x
# 
# 
# 
# Reset Value : 1
# UVM_INFO ../tb/scoreboard.sv(49) @ 75000: uvm_test_top.env_h.scoreboard_h [Input Transaction] wr = 1, rd = 1, data_in = 10110101000101101000101100101100
# UVM_INFO ../tb/scoreboard.sv(50) @ 75000: uvm_test_top.env_h.scoreboard_h [Output Transaction] data_out = 00000000000000000000000000000000, status_empty = 1, status_full = 0
# 
# 
# 
# Reset Value : 1
# UVM_INFO ../tb/scoreboard.sv(49) @ 105000: uvm_test_top.env_h.scoreboard_h [Input Transaction] wr = 1, rd = 1, data_in = 00000110110100111101110100011010
# UVM_INFO ../tb/scoreboard.sv(50) @ 105000: uvm_test_top.env_h.scoreboard_h [Output Transaction] data_out = 00000000000000000000000000000000, status_empty = 1, status_full = 0
# 
# 
# 
# Reset Value : 0
# UVM_INFO ../tb/scoreboard.sv(49) @ 135000: uvm_test_top.env_h.scoreboard_h [Input Transaction] wr = 1, rd = 1, data_in = 00010111000111111001110001001001
# UVM_INFO ../tb/scoreboard.sv(50) @ 135000: uvm_test_top.env_h.scoreboard_h [Output Transaction] data_out = 00000000000000000000000000000000, status_empty = 1, status_full = 0
# 
# 
# 
# Reset Value : 1
# UVM_INFO ../tb/scoreboard.sv(49) @ 165000: uvm_test_top.env_h.scoreboard_h [Input Transaction] wr = 1, rd = 1, data_in = 01101101001010001001111110100100
# UVM_INFO ../tb/scoreboard.sv(50) @ 165000: uvm_test_top.env_h.scoreboard_h [Output Transaction] data_out = 00000000000000000000000000000000, status_empty = 1, status_full = 0
# 
# 
# 
# Reset Value : 1
# UVM_INFO ../tb/scoreboard.sv(49) @ 195000: uvm_test_top.env_h.scoreboard_h [Input Transaction] wr = 1, rd = 1, data_in = 00001010011100110001000101001011
# UVM_INFO ../tb/scoreboard.sv(50) @ 195000: uvm_test_top.env_h.scoreboard_h [Output Transaction] data_out = 00000000000000000000000000000000, status_empty = 1, status_full = 0
# 
# 
# 
# Reset Value : 1
# UVM_INFO ../tb/scoreboard.sv(49) @ 225000: uvm_test_top.env_h.scoreboard_h [Input Transaction] wr = 1, rd = 1, data_in = 00001011111110011101001011110110
# UVM_INFO ../tb/scoreboard.sv(50) @ 225000: uvm_test_top.env_h.scoreboard_h [Output Transaction] data_out = 00000000000000000000000000000000, status_empty = 1, status_full = 0
# 
# 
# 
# Reset Value : 0
# UVM_INFO ../tb/scoreboard.sv(49) @ 255000: uvm_test_top.env_h.scoreboard_h [Input Transaction] wr = 1, rd = 1, data_in = 11000111110111100000011011010101
# UVM_INFO ../tb/scoreboard.sv(50) @ 255000: uvm_test_top.env_h.scoreboard_h [Output Transaction] data_out = 00000000000000000000000000000000, status_empty = 1, status_full = 0
# 
# 
# 
# Reset Value : 1
# UVM_INFO ../tb/scoreboard.sv(49) @ 285000: uvm_test_top.env_h.scoreboard_h [Input Transaction] wr = 1, rd = 1, data_in = 11110101001011001111001110010101
# UVM_INFO ../tb/scoreboard.sv(50) @ 285000: uvm_test_top.env_h.scoreboard_h [Output Transaction] data_out = 00000000000000000000000000000000, status_empty = 1, status_full = 0
# 
# 
# 
# Reset Value : 1
# UVM_INFO ../tb/scoreboard.sv(49) @ 315000: uvm_test_top.env_h.scoreboard_h [Input Transaction] wr = 1, rd = 1, data_in = 00010101000111010111100000111011
# UVM_INFO ../tb/scoreboard.sv(50) @ 315000: uvm_test_top.env_h.scoreboard_h [Output Transaction] data_out = 00000000000000000000000000000000, status_empty = 1, status_full = 0
# 
# 
# 
# Reset Value : 0
# UVM_INFO ../tb/scoreboard.sv(49) @ 345000: uvm_test_top.env_h.scoreboard_h [Input Transaction] wr = 0, rd = 1, data_in = 00101010101010000111111111000101
# UVM_INFO ../tb/scoreboard.sv(50) @ 345000: uvm_test_top.env_h.scoreboard_h [Output Transaction] data_out = 00000000000000000000000000000000, status_empty = 1, status_full = 0
# 
# 
# 
# Reset Value : 0
# UVM_INFO ../tb/scoreboard.sv(49) @ 375000: uvm_test_top.env_h.scoreboard_h [Input Transaction] wr = 0, rd = 1, data_in = 11101011101000010110110011010100
# UVM_INFO ../tb/scoreboard.sv(50) @ 375000: uvm_test_top.env_h.scoreboard_h [Output Transaction] data_out = 00101010101010000111111111000101, status_empty = 1, status_full = 0
# 
# 
# 
# Reset Value : 1
# UVM_INFO ../tb/scoreboard.sv(49) @ 405000: uvm_test_top.env_h.scoreboard_h [Input Transaction] wr = 0, rd = 1, data_in = 11011100001011111110011101000011
# UVM_INFO ../tb/scoreboard.sv(50) @ 405000: uvm_test_top.env_h.scoreboard_h [Output Transaction] data_out = 00000000000000000000000000000000, status_empty = 1, status_full = 0
# 
# 
# 
# Reset Value : 0
# UVM_INFO ../tb/scoreboard.sv(49) @ 435000: uvm_test_top.env_h.scoreboard_h [Input Transaction] wr = 0, rd = 1, data_in = 11111010110111100110100010010011
# UVM_INFO ../tb/scoreboard.sv(50) @ 435000: uvm_test_top.env_h.scoreboard_h [Output Transaction] data_out = 00000000000000000000000000000000, status_empty = 1, status_full = 0
# 
# 
# 
# Reset Value : 1
# UVM_INFO ../tb/scoreboard.sv(49) @ 465000: uvm_test_top.env_h.scoreboard_h [Input Transaction] wr = 0, rd = 1, data_in = 01101101100100100001100010011001
# UVM_INFO ../tb/scoreboard.sv(50) @ 465000: uvm_test_top.env_h.scoreboard_h [Output Transaction] data_out = 00000000000000000000000000000000, status_empty = 1, status_full = 0
# 
# 
# 
# Reset Value : 1
# UVM_INFO ../tb/scoreboard.sv(49) @ 495000: uvm_test_top.env_h.scoreboard_h [Input Transaction] wr = 0, rd = 1, data_in = 11010101001000110101010110001011
# UVM_INFO ../tb/scoreboard.sv(50) @ 495000: uvm_test_top.env_h.scoreboard_h [Output Transaction] data_out = 00000000000000000000000000000000, status_empty = 1, status_full = 0
# 
# 
# 
# Reset Value : 0
# UVM_INFO ../tb/scoreboard.sv(49) @ 525000: uvm_test_top.env_h.scoreboard_h [Input Transaction] wr = 0, rd = 1, data_in = 00011001100000010001011000001100
# UVM_INFO ../tb/scoreboard.sv(50) @ 525000: uvm_test_top.env_h.scoreboard_h [Output Transaction] data_out = 00000000000000000000000000000000, status_empty = 1, status_full = 0
# 
# 
# 
# Reset Value : 1
# UVM_INFO ../tb/scoreboard.sv(49) @ 555000: uvm_test_top.env_h.scoreboard_h [Input Transaction] wr = 0, rd = 1, data_in = 11000001110111000110110000000110
# UVM_INFO ../tb/scoreboard.sv(50) @ 555000: uvm_test_top.env_h.scoreboard_h [Output Transaction] data_out = 00000000000000000000000000000000, status_empty = 1, status_full = 0
# 
# 
# 
# Reset Value : 1
# UVM_INFO ../tb/scoreboard.sv(49) @ 585000: uvm_test_top.env_h.scoreboard_h [Input Transaction] wr = 0, rd = 1, data_in = 01100010110101100010100010101101
# UVM_INFO ../tb/scoreboard.sv(50) @ 585000: uvm_test_top.env_h.scoreboard_h [Output Transaction] data_out = 00000000000000000000000000000000, status_empty = 1, status_full = 0
# 
# 
# 
# Reset Value : 0
# UVM_INFO ../tb/scoreboard.sv(49) @ 615000: uvm_test_top.env_h.scoreboard_h [Input Transaction] wr = 0, rd = 1, data_in = 00101101000010011100100111111101
# UVM_INFO ../tb/scoreboard.sv(50) @ 615000: uvm_test_top.env_h.scoreboard_h [Output Transaction] data_out = 00000000000000000000000000000000, status_empty = 1, status_full = 0
# 
# 
# 
# Reset Value : 0
# UVM_INFO ../tb/scoreboard.sv(49) @ 645000: uvm_test_top.env_h.scoreboard_h [Input Transaction] wr = 1, rd = 0, data_in = 10011011101100101100101111010100
# UVM_INFO ../tb/scoreboard.sv(50) @ 645000: uvm_test_top.env_h.scoreboard_h [Output Transaction] data_out = 00101101000010011100100111111101, status_empty = 1, status_full = 0
# 
# 
# 
# Reset Value : 0
# UVM_INFO ../tb/scoreboard.sv(49) @ 675000: uvm_test_top.env_h.scoreboard_h [Input Transaction] wr = 1, rd = 0, data_in = 00111010111011101110101111000110
# UVM_INFO ../tb/scoreboard.sv(50) @ 675000: uvm_test_top.env_h.scoreboard_h [Output Transaction] data_out = 10011011101100101100101111010100, status_empty = 1, status_full = 1
# 
# 
# 
# Reset Value : 0
# UVM_INFO ../tb/scoreboard.sv(49) @ 705000: uvm_test_top.env_h.scoreboard_h [Input Transaction] wr = 1, rd = 0, data_in = 00011011111100001010010111100011
# UVM_INFO ../tb/scoreboard.sv(50) @ 705000: uvm_test_top.env_h.scoreboard_h [Output Transaction] data_out = 00111010111011101110101111000110, status_empty = 0, status_full = 1
# 
# 
# 
# Reset Value : 0
# UVM_INFO ../tb/scoreboard.sv(49) @ 735000: uvm_test_top.env_h.scoreboard_h [Input Transaction] wr = 1, rd = 0, data_in = 00001011111110110110001010011010
# UVM_INFO ../tb/scoreboard.sv(50) @ 735000: uvm_test_top.env_h.scoreboard_h [Output Transaction] data_out = 00111010111011101110101111000110, status_empty = 0, status_full = 1
# 
# 
# 
# Reset Value : 1
# UVM_INFO ../tb/scoreboard.sv(49) @ 765000: uvm_test_top.env_h.scoreboard_h [Input Transaction] wr = 1, rd = 0, data_in = 10011101100010110111010101000000
# UVM_INFO ../tb/scoreboard.sv(50) @ 765000: uvm_test_top.env_h.scoreboard_h [Output Transaction] data_out = 00000000000000000000000000000000, status_empty = 1, status_full = 0
# 
# 
# 
# Reset Value : 0
# UVM_INFO ../tb/scoreboard.sv(49) @ 795000: uvm_test_top.env_h.scoreboard_h [Input Transaction] wr = 1, rd = 0, data_in = 01011001001101010110111100111010
# UVM_INFO ../tb/scoreboard.sv(50) @ 795000: uvm_test_top.env_h.scoreboard_h [Output Transaction] data_out = 00000000000000000000000000000000, status_empty = 1, status_full = 0
# 
# 
# 
# Reset Value : 0
# UVM_INFO ../tb/scoreboard.sv(49) @ 825000: uvm_test_top.env_h.scoreboard_h [Input Transaction] wr = 1, rd = 0, data_in = 11100110110001101011110001111111
# UVM_INFO ../tb/scoreboard.sv(50) @ 825000: uvm_test_top.env_h.scoreboard_h [Output Transaction] data_out = 01011001001101010110111100111010, status_empty = 0, status_full = 0
# 
# 
# 
# Reset Value : 1
# UVM_INFO ../tb/scoreboard.sv(49) @ 855000: uvm_test_top.env_h.scoreboard_h [Input Transaction] wr = 1, rd = 0, data_in = 01100111001011100100101110111001
# UVM_INFO ../tb/scoreboard.sv(50) @ 855000: uvm_test_top.env_h.scoreboard_h [Output Transaction] data_out = 00000000000000000000000000000000, status_empty = 1, status_full = 0
# 
# 
# 
# Reset Value : 1
# UVM_INFO ../tb/scoreboard.sv(49) @ 885000: uvm_test_top.env_h.scoreboard_h [Input Transaction] wr = 1, rd = 0, data_in = 01001101101011111011110001111110
# UVM_INFO ../tb/scoreboard.sv(50) @ 885000: uvm_test_top.env_h.scoreboard_h [Output Transaction] data_out = 00000000000000000000000000000000, status_empty = 1, status_full = 0
# 
# 
# 
# Reset Value : 1
# UVM_INFO ../tb/scoreboard.sv(49) @ 915000: uvm_test_top.env_h.scoreboard_h [Input Transaction] wr = 1, rd = 0, data_in = 11101000011010100010000101110101
# UVM_INFO ../tb/scoreboard.sv(50) @ 915000: uvm_test_top.env_h.scoreboard_h [Output Transaction] data_out = 00000000000000000000000000000000, status_empty = 1, status_full = 0
# 
# 
# 
# Reset Value : 0
# UVM_INFO ../tb/scoreboard.sv(49) @ 945000: uvm_test_top.env_h.scoreboard_h [Input Transaction] wr = 0, rd = 1, data_in = 10001100001011010010000000001011
# UVM_INFO ../tb/scoreboard.sv(50) @ 945000: uvm_test_top.env_h.scoreboard_h [Output Transaction] data_out = 00000000000000000000000000000000, status_empty = 1, status_full = 0
# 
# 
# 
# Reset Value : 0
# UVM_INFO ../tb/scoreboard.sv(49) @ 975000: uvm_test_top.env_h.scoreboard_h [Input Transaction] wr = 0, rd = 1, data_in = 10111001010011101101001010000010
# UVM_INFO ../tb/scoreboard.sv(50) @ 975000: uvm_test_top.env_h.scoreboard_h [Output Transaction] data_out = 10001100001011010010000000001011, status_empty = 1, status_full = 0
# 
# 
# 
# Reset Value : 0
# UVM_INFO ../tb/scoreboard.sv(49) @ 1005000: uvm_test_top.env_h.scoreboard_h [Input Transaction] wr = 0, rd = 1, data_in = 10110110011000101010010101100100
# UVM_INFO ../tb/scoreboard.sv(50) @ 1005000: uvm_test_top.env_h.scoreboard_h [Output Transaction] data_out = 10111001010011101101001010000010, status_empty = 1, status_full = 0
# 
# 
# 
# Reset Value : 0
# UVM_INFO ../tb/scoreboard.sv(49) @ 1035000: uvm_test_top.env_h.scoreboard_h [Input Transaction] wr = 0, rd = 1, data_in = 00110010011000111010001011111011
# UVM_INFO ../tb/scoreboard.sv(50) @ 1035000: uvm_test_top.env_h.scoreboard_h [Output Transaction] data_out = 10110110011000101010010101100100, status_empty = 1, status_full = 0
# 
# 
# 
# Reset Value : 0
# UVM_INFO ../tb/scoreboard.sv(49) @ 1065000: uvm_test_top.env_h.scoreboard_h [Input Transaction] wr = 0, rd = 1, data_in = 11101010111101001011110101100010
# UVM_INFO ../tb/scoreboard.sv(50) @ 1065000: uvm_test_top.env_h.scoreboard_h [Output Transaction] data_out = 00110010011000111010001011111011, status_empty = 1, status_full = 0
# 
# 
# 
# Reset Value : 0
# UVM_INFO ../tb/scoreboard.sv(49) @ 1095000: uvm_test_top.env_h.scoreboard_h [Input Transaction] wr = 0, rd = 1, data_in = 11101011001011010011100010010011
# UVM_INFO ../tb/scoreboard.sv(50) @ 1095000: uvm_test_top.env_h.scoreboard_h [Output Transaction] data_out = 11101010111101001011110101100010, status_empty = 1, status_full = 0
# 
# 
# 
# Reset Value : 0
# UVM_INFO ../tb/scoreboard.sv(49) @ 1125000: uvm_test_top.env_h.scoreboard_h [Input Transaction] wr = 0, rd = 1, data_in = 11010111011100100101111010011011
# UVM_INFO ../tb/scoreboard.sv(50) @ 1125000: uvm_test_top.env_h.scoreboard_h [Output Transaction] data_out = 11101011001011010011100010010011, status_empty = 1, status_full = 0
# 
# 
# 
# Reset Value : 0
# UVM_INFO ../tb/scoreboard.sv(49) @ 1155000: uvm_test_top.env_h.scoreboard_h [Input Transaction] wr = 0, rd = 1, data_in = 01111010100110001100010001100000
# UVM_INFO ../tb/scoreboard.sv(50) @ 1155000: uvm_test_top.env_h.scoreboard_h [Output Transaction] data_out = 11010111011100100101111010011011, status_empty = 1, status_full = 0
# 
# 
# 
# Reset Value : 0
# UVM_INFO ../tb/scoreboard.sv(49) @ 1185000: uvm_test_top.env_h.scoreboard_h [Input Transaction] wr = 0, rd = 1, data_in = 11100001010011011111111000111110
# UVM_INFO ../tb/scoreboard.sv(50) @ 1185000: uvm_test_top.env_h.scoreboard_h [Output Transaction] data_out = 01111010100110001100010001100000, status_empty = 1, status_full = 0
# 
# 
# 
# Reset Value : 0
# UVM_INFO ../tb/scoreboard.sv(49) @ 1215000: uvm_test_top.env_h.scoreboard_h [Input Transaction] wr = 0, rd = 1, data_in = 11101011000001011011111100000010
# UVM_INFO ../tb/scoreboard.sv(50) @ 1215000: uvm_test_top.env_h.scoreboard_h [Output Transaction] data_out = 11100001010011011111111000111110, status_empty = 1, status_full = 0
# 
# 
# 
# Reset Value : 0
# UVM_INFO ../tb/scoreboard.sv(49) @ 1245000: uvm_test_top.env_h.scoreboard_h [Input Transaction] wr = 1, rd = 0, data_in = 01111101000111010011101000111111
# UVM_INFO ../tb/scoreboard.sv(50) @ 1245000: uvm_test_top.env_h.scoreboard_h [Output Transaction] data_out = 11101011000001011011111100000010, status_empty = 1, status_full = 0
# 
# 
# 
# Reset Value : 0
# UVM_INFO ../tb/scoreboard.sv(49) @ 1275000: uvm_test_top.env_h.scoreboard_h [Input Transaction] wr = 1, rd = 0, data_in = 10000101000001001110101100101010
# UVM_INFO ../tb/scoreboard.sv(50) @ 1275000: uvm_test_top.env_h.scoreboard_h [Output Transaction] data_out = 01111101000111010011101000111111, status_empty = 1, status_full = 0
# 
# 
# 
# Reset Value : 0
# UVM_INFO ../tb/scoreboard.sv(49) @ 1305000: uvm_test_top.env_h.scoreboard_h [Input Transaction] wr = 1, rd = 0, data_in = 01010100101111001010001010010101
# UVM_INFO ../tb/scoreboard.sv(50) @ 1305000: uvm_test_top.env_h.scoreboard_h [Output Transaction] data_out = 10000101000001001110101100101010, status_empty = 1, status_full = 1
# 
# 
# 
# Reset Value : 0
# UVM_INFO ../tb/scoreboard.sv(49) @ 1335000: uvm_test_top.env_h.scoreboard_h [Input Transaction] wr = 1, rd = 0, data_in = 10101011111100100110100110001011
# UVM_INFO ../tb/scoreboard.sv(50) @ 1335000: uvm_test_top.env_h.scoreboard_h [Output Transaction] data_out = 01010100101111001010001010010101, status_empty = 0, status_full = 1
# 
# 
# 
# Reset Value : 0
# UVM_INFO ../tb/scoreboard.sv(49) @ 1365000: uvm_test_top.env_h.scoreboard_h [Input Transaction] wr = 1, rd = 0, data_in = 11100101001111101010010111100011
# UVM_INFO ../tb/scoreboard.sv(50) @ 1365000: uvm_test_top.env_h.scoreboard_h [Output Transaction] data_out = 01010100101111001010001010010101, status_empty = 0, status_full = 1
# 
# 
# 
# Reset Value : 0
# UVM_INFO ../tb/scoreboard.sv(49) @ 1395000: uvm_test_top.env_h.scoreboard_h [Input Transaction] wr = 1, rd = 0, data_in = 00100010000101010110110101100111
# UVM_INFO ../tb/scoreboard.sv(50) @ 1395000: uvm_test_top.env_h.scoreboard_h [Output Transaction] data_out = 01010100101111001010001010010101, status_empty = 0, status_full = 1
# 
# 
# 
# Reset Value : 0
# UVM_INFO ../tb/scoreboard.sv(49) @ 1425000: uvm_test_top.env_h.scoreboard_h [Input Transaction] wr = 1, rd = 0, data_in = 11100010010001010101011001011010
# UVM_INFO ../tb/scoreboard.sv(50) @ 1425000: uvm_test_top.env_h.scoreboard_h [Output Transaction] data_out = 01010100101111001010001010010101, status_empty = 0, status_full = 1
# 
# 
# 
# Reset Value : 0
# UVM_INFO ../tb/scoreboard.sv(49) @ 1455000: uvm_test_top.env_h.scoreboard_h [Input Transaction] wr = 1, rd = 0, data_in = 00011100101110101111011010010110
# UVM_INFO ../tb/scoreboard.sv(50) @ 1455000: uvm_test_top.env_h.scoreboard_h [Output Transaction] data_out = 01010100101111001010001010010101, status_empty = 0, status_full = 1
# 
# 
# 
# Reset Value : 0
# UVM_INFO ../tb/scoreboard.sv(49) @ 1485000: uvm_test_top.env_h.scoreboard_h [Input Transaction] wr = 1, rd = 0, data_in = 00001110011010111100011000010001
# UVM_INFO ../tb/scoreboard.sv(50) @ 1485000: uvm_test_top.env_h.scoreboard_h [Output Transaction] data_out = 11100010010001010101011001011010, status_empty = 0, status_full = 1
# 
# 
# 
# Reset Value : 0
# UVM_INFO ../tb/scoreboard.sv(49) @ 1515000: uvm_test_top.env_h.scoreboard_h [Input Transaction] wr = 1, rd = 0, data_in = 11001111001010111110001100111011
# UVM_INFO ../tb/scoreboard.sv(50) @ 1515000: uvm_test_top.env_h.scoreboard_h [Output Transaction] data_out = 11100010010001010101011001011010, status_empty = 0, status_full = 1
# 
# 
# 
# Reset Value : 1
# UVM_INFO ../tb/scoreboard.sv(49) @ 1545000: uvm_test_top.env_h.scoreboard_h [Input Transaction] wr = 0, rd = 1, data_in = 01100101101000010001110010110011
# UVM_INFO ../tb/scoreboard.sv(50) @ 1545000: uvm_test_top.env_h.scoreboard_h [Output Transaction] data_out = 00000000000000000000000000000000, status_empty = 1, status_full = 0
# 
# 
# 
# Reset Value : 1
# UVM_INFO ../tb/scoreboard.sv(49) @ 1575000: uvm_test_top.env_h.scoreboard_h [Input Transaction] wr = 0, rd = 1, data_in = 00000101110011001011101011101011
# UVM_INFO ../tb/scoreboard.sv(50) @ 1575000: uvm_test_top.env_h.scoreboard_h [Output Transaction] data_out = 00000000000000000000000000000000, status_empty = 1, status_full = 0
# 
# 
# 
# Reset Value : 0
# UVM_INFO ../tb/scoreboard.sv(49) @ 1605000: uvm_test_top.env_h.scoreboard_h [Input Transaction] wr = 0, rd = 1, data_in = 10110011010001001100000010110010
# UVM_INFO ../tb/scoreboard.sv(50) @ 1605000: uvm_test_top.env_h.scoreboard_h [Output Transaction] data_out = 00000000000000000000000000000000, status_empty = 1, status_full = 0
# 
# 
# 
# Reset Value : 1
# UVM_INFO ../tb/scoreboard.sv(49) @ 1635000: uvm_test_top.env_h.scoreboard_h [Input Transaction] wr = 1, rd = 1, data_in = 10001101111111101111010001000000
# UVM_INFO ../tb/scoreboard.sv(50) @ 1635000: uvm_test_top.env_h.scoreboard_h [Output Transaction] data_out = 00000000000000000000000000000000, status_empty = 1, status_full = 0
# 
# 
# 
# Reset Value : 0
# UVM_INFO ../tb/scoreboard.sv(49) @ 1665000: uvm_test_top.env_h.scoreboard_h [Input Transaction] wr = 1, rd = 0, data_in = 01001000011101101100010111110010
# UVM_INFO ../tb/scoreboard.sv(50) @ 1665000: uvm_test_top.env_h.scoreboard_h [Output Transaction] data_out = 00000000000000000000000000000000, status_empty = 1, status_full = 0
# 
# 
# 
# Reset Value : 1
# UVM_INFO ../tb/scoreboard.sv(49) @ 1695000: uvm_test_top.env_h.scoreboard_h [Input Transaction] wr = 1, rd = 1, data_in = 11011110101010000101100111101000
# UVM_INFO ../tb/scoreboard.sv(50) @ 1695000: uvm_test_top.env_h.scoreboard_h [Output Transaction] data_out = 00000000000000000000000000000000, status_empty = 1, status_full = 0
# 
# 
# 
# Reset Value : 1
# UVM_INFO ../tb/scoreboard.sv(49) @ 1725000: uvm_test_top.env_h.scoreboard_h [Input Transaction] wr = 0, rd = 1, data_in = 01110000011110100001100110110010
# UVM_INFO ../tb/scoreboard.sv(50) @ 1725000: uvm_test_top.env_h.scoreboard_h [Output Transaction] data_out = 00000000000000000000000000000000, status_empty = 1, status_full = 0
# 
# 
# 
# Reset Value : 0
# UVM_INFO ../tb/scoreboard.sv(49) @ 1755000: uvm_test_top.env_h.scoreboard_h [Input Transaction] wr = 0, rd = 0, data_in = 10001111010010111001010110110110
# UVM_INFO ../tb/scoreboard.sv(50) @ 1755000: uvm_test_top.env_h.scoreboard_h [Output Transaction] data_out = 00000000000000000000000000000000, status_empty = 1, status_full = 0
# 
# 
# 
# Reset Value : 0
# UVM_INFO ../tb/scoreboard.sv(49) @ 1785000: uvm_test_top.env_h.scoreboard_h [Input Transaction] wr = 0, rd = 0, data_in = 00010101011000110001010001111011
# UVM_INFO ../tb/scoreboard.sv(50) @ 1785000: uvm_test_top.env_h.scoreboard_h [Output Transaction] data_out = 10001111010010111001010110110110, status_empty = 1, status_full = 0
# 
# 
# 
# Reset Value : 0
# UVM_INFO ../tb/scoreboard.sv(49) @ 1815000: uvm_test_top.env_h.scoreboard_h [Input Transaction] wr = 0, rd = 0, data_in = 00000100000010011110110101010010
# UVM_INFO ../tb/scoreboard.sv(50) @ 1815000: uvm_test_top.env_h.scoreboard_h [Output Transaction] data_out = 00010101011000110001010001111011, status_empty = 1, status_full = 0
# 
# 
# 
# Reset Value : 0
# UVM_INFO ../tb/scoreboard.sv(49) @ 1845000: uvm_test_top.env_h.scoreboard_h [Input Transaction] wr = 1, rd = 1, data_in = 11110111000100011110011111111101
# UVM_INFO ../tb/scoreboard.sv(50) @ 1845000: uvm_test_top.env_h.scoreboard_h [Output Transaction] data_out = 00000100000010011110110101010010, status_empty = 1, status_full = 0
# 
# 
# 
# Reset Value : 0
# UVM_INFO ../tb/scoreboard.sv(49) @ 1875000: uvm_test_top.env_h.scoreboard_h [Input Transaction] wr = 0, rd = 0, data_in = 00010111101110101010011100010100
# UVM_INFO ../tb/scoreboard.sv(50) @ 1875000: uvm_test_top.env_h.scoreboard_h [Output Transaction] data_out = 11110111000100011110011111111101, status_empty = 1, status_full = 0
# 
# 
# 
# Reset Value : 1
# UVM_INFO ../tb/scoreboard.sv(49) @ 1905000: uvm_test_top.env_h.scoreboard_h [Input Transaction] wr = 1, rd = 0, data_in = 00001110101101000101110010111110
